7:10,4:9
8:10,4:9
9:10,4:9
10:10,4:9
3:31,9:30
4:31,9:30
5:31,9:30
6:31,9:30
4:45,3:44,9:44
5:45,3:44,9:44
6:45,3:44,9:44
7:45,3:44,9:44
7:59,5:56
8:59,5:56
9:59,5:56
10:59,5:56
7:57,3:46
8:57,3:46
9:57,3:46
10:57,3:46
7:58,9:46
8:58,9:46
9:58,9:46
10:58,9:46
7:97,5:60
8:97,5:60
9:97,5:60
10:97,5:60
2:70,4:89
3:70,4:89
4:70,4:89
5:70,4:89
7:119,4:106
8:119,4:106
9:119,4:106
10:119,4:106
7:116,3:113
8:116,3:113
9:116,3:113
10:116,3:113
7:147,5:120,3:130,5:146
8:147,5:120,3:130,5:146
9:147,5:120,3:130,5:146
10:147,5:120,3:130,5:146
7:155,6:148,9:154,3:157,9:157
7:156,6:148,9:154,3:157,9:157
8:155,6:148,9:154,3:157,9:157
8:156,6:148,9:154,3:157,9:157
9:155,6:148,9:154,3:157,9:157
9:156,6:148,9:154,3:157,9:157